*** Life<FredkinCell> 16x17 ***

Generation = 0, Population = 5.
----------------0
-----------------
-----------------
-----------------
---------------0-
-----------------
-----------------
-----------------
-----------------
-------------0---
-----------------
-----------------
-------------0---
-----------------
-----------------
-------------0---

Generation = 3, Population = 55.
-------------0-0-
--------------000
--------------011
-------------0-00
------------0-0--
-------------0-0-
-------------00-0
------------0-00-
-----------0-0-0-
----------0-000-0
-----------00200-
-----------00200-
----------0-0-0-0
-----------00200-
-----------00-00-
----------0--1--0

Generation = 6, Population = 35.
----------0--0-3-
-----------------
-----------00----
-------------0---
---------0----1--
-----------1---1-
-----------0-1--0
---------0---1---
-----------0-1-1-
-------0---0-1---
---------1---3-0-
---------1-0---0-
-------0---0-----
---------1---2---
---------1-------
-------0-0-0-----

Generation = 9, Population = 45.
-------0---0-0---
--------0-0-0-00-
-------------00-2
-------0---0-0-0-
------0-0-0---1--
-------0---2-1--0
-------------2-0-
------------0-0--
-----0-------1-1-
----0-0---------0
-----0-----------
-----0---------1-
----0-0-------0-0
-----0---------0-
-----0-----------
----0-0----------

Generation = 12, Population = 49.
----0-01---00125-
---------0---1---
--------2-21---22
-------------3---
---0---00011---21
-----1-------2---
------------0-20-
---------0-------
-----1-1---20101-
-0-------0-------
----------------2
-----3-------4---
-0-------0-1---10
-----------------
-----------------
-0-------1-------

Generation = 15, Population = 148.
-0-00--40-0--4-80
--0000020--10--30
--011--1-0-2110--
-0-0---00---030-0
0-00--2-0----0---
-00201-202------0
-001-200120----1-
0-0-0--20103--0--
-001----00250----
-001-----103030--
020-04----001-02-
02-1030----3-4--0
--010001---20----
02000-000-0-0--00
0-00-1-00--101011
01--0-0--2-10--00

Generation = 18, Population = 49.
0---0--------5---
-----------1---3-
0-01-------2-4-3-
-----------------
-0---0-----2-3-3-
-----------3-4-1-
---1---------3---
-0---1-----3-2-0-
---------------2-
-------1-----3---
-3---5-------5-3-
-3---4-----------
-------1-----0-22
-3---3-----------
-2---2--------022
-2---1-0---------

Generation = 21, Population = 106.
--1-1--4-0-------
---00-0-010------
---2----213--4---
-------0----0-0--
-0-1-02--11------
----0-02030-0502-
-0---2------04--0
-0-0-1--0-0------
0----30-----02--1
-1-1030-0-03060-0
-4-------30-1-044
0-0-070--3--0-0-0
-0--020-0---001-3
-----4---3-00-0-0
-----2---2-1--3-5
----0-0-0-0-0-000

Generation = 24, Population = 35.
----2-2-2-1------
-1---------------
---5-0---------5-
-----------------
-0-2-------5---4-
-----2-----------
2-0-------------0
-1-----------3---
1-1--------------
---------1-------
-------1---2-8--5
-----------------
---1---2-0-2---4-
-------------4---
--------1-0----2-
---------4-------

Generation = 27, Population = 137.
-02--23--2-2-52-0
---2---2--0304---
-0--21--3-44----3
-2---3-00100-4--0
3-2--1-20-1--4154
0-04--0-05-40----
3--41--1-3040-431
-101--020---03-2-
------03002--404-
0--3050-0105----0
-612---2-502194--
0501-8-0-7--0--2-
0-0----2----12--5
-4-0--0006-2--0--
--0-0412-------35
---0---105030200-

Generation = 30, Population = 76.
-----3------25-9-
-1-----------4---
---5-1-1--57----6
---0-------0---2-
-2-2-2-21-----1--
-----2---5---8---
-4-5-50--4--1--4-
-----------5-----
---10--6--35-4-4-
-----5-------9---
--45-6--08-3-----
---1---1-+-----2-
11---212-0---5-4-
-4---5-1-7-2-4---
0--11----6-4-2-3-
---0-4-2-5-------

Generation = 33, Population = 47.
-----------3-----
------------0-04-
--------------077
-----------1----0
----------3-0-1-4
-----------4-----
-------------45-3
------------0-02-
---------2---5---
--------0-0--+---
---------8--3+5--
---------+--090--
--------0-0------
---------7--050--
---------6--1-4--
--------0-0-040--

*** Life<FredkinCell> 27x15 ***

Generation = 0, Population = 3.
---------------
---------------
---------------
---------------
---------------
---------------
---------------
---------------
---------------
-------------0-
---------------
---------------
---------------
---------------
---------------
---------------
-------------0-
---------------
---------------
---------------
---------------
---------------
---------------
-0-------------
---------------
---------------
---------------

Generation = 3, Population = 36.
---------------
---------------
---------------
---------------
---------------
---------------
-------------0-
------------0-0
-----------0-0-
----------0-0--
-----------0-0-
------------0-0
-------------0-
-------------0-
------------0-0
-----------0-0-
----------0-0--
-----------0-0-
------------0-0
-------------0-
-0-------------
0-0------------
-0-0-----------
--0-0----------
-0-0-----------
0-0------------
-0-------------

Generation = 6, Population = 20.
---------------
---------------
---------------
-------------0-
---------------
-----------0---
---------------
---------0-----
---------------
-------0-------
-------------1-
---------0-----
-----------0---
-----------0---
---------0-----
-------------1-
-------0-------
-0-------------
---------0-----
---0-----------
-----------0---
-----0---------
-------------0-
-------0-------
---------------
-0---0---------
---------------

Generation = 9, Population = 48.
-------------0-
------------0-0
-------------0-
---------------
---------------
---------------
---------------
-------------0-
-----0---0--0-0
----0-0-0-0--0-
-----0---0-----
---------------
---------------
---------------
-0-------------
0-0--0---0-----
-0--0-0-0-0--0-
-----0---0--0-0
-------------0-
---------------
---------------
---------------
-0---0---0-----
0-0-0-0-0-0--0-
-0---0---0--0-0
-------------0-
---------------

Generation = 12, Population = 37.
---------------
---------0-----
---------------
---------------
-------------1-
-----0---0---1-
---------------
---------------
---------1---0-
-0---0---0---1-
---------------
-0-------------
-----1---1---2-
-----1---1---2-
---------------
-0---1---------
-1---0---0---1-
---------1---0-
---------------
-----1---1-----
-----1---1---1-
-------------1-
---------------
---------0---1-
---------1---0-
---------------
-------------0-

Generation = 15, Population = 126.
-------0---0---
------0-0-0-00-
-----0-0---0010
----0-0----0020
---0-0----0-02-
--0-0----0-0---
-0-0----0-0----
0-0----0-0-----
------0-0------
0-0--0-0-------
---00-0--------
0--100---------
-00-02---------
-001--0--------
0-00---0-------
-1--0---0------
-2---1---1-----
020---0---0----
0100---0---0---
-0010---0---0--
--0102---2---2-
---0020---0---0
----0100---0---
-----0010---040
------0102--0-0
-------00200010
--------01--00-

Generation = 18, Population = 17.
-----------0-0-
---------------
-------------1-
-------------2-
---------------
-0---------0---
---------------
---0---------0-
---------------
-0-------------
---------------
---------------
---------------
-0-------------
---------------
---1-----------
---------------
-2-------------
---------------
---------------
-------------2-
---------------
-----------0---
-------------5-
-------------3-
-----------0---
---------------

Generation = 21, Population = 73.
--------0-0-010
---------0--0-0
-0----------040
0-0------------
-0-------0--040
--------0-0-030
-0---0---1---0-
0-0-0-0--------
-0---0-------1-
------------0-0
-------------1-
---------------
---------------
---------------
-1---0---------
0-0-0-0--------
-2---1---------
-------------1-
-1----------0-0
0-0----------0-
-0-----------2-
---------0--050
--------0-0-020
---------1---6-
---------2-----
--------0-0--2-
---------1--0-0

Generation = 24, Population = 23.
-----0---0-----
-------------0-
---------------
---------------
---------------
-----0---0-----
-------------1-
-0---0---0-----
-------------1-
---------------
---------------
---------------
---------------
-------------3-
-------------0-
-2---3---0-----
---------------
-------------2-
---------------
---------------
---------------
-------------5-
-----1---1-----
-0-------------
-------------5-
-----0---3-----
---------------

*** Life<FredkinCell> 19x26 ***

Generation = 0, Population = 7.
--------------------------
--------------------------
--------------------------
--------------------------
--------------------------
0--------------0----------
--------------------------
--------------------------
--------------------------
--------------------------
--------0-----------------
--------------0-----------
----------------------0---
--------------------------
----------------------0---
---0----------------------
--------------------------
--------------------------
--------------------------

Generation = 4, Population = 24.
--------------------------
0--------------0----------
--------------------------
--------------------------
--------------------------
--0-0------0-------0------
--------0-----------------
--------------1-----------
----------------------0---
0--------------1----------
----0-------1---------0---
---0------1-------0-------
------------------0-------
--------------------------
--------0---------0-------
-------0------0-----------
----------------------0---
--------------------------
----------------------0---

Generation = 8, Population = 25.
--------------------------
0--------------0----------
--------0-----------------
--------------1-----------
----------------------0---
------210--------------0--
----------------------0---
---0----------------------
--------------------------
--------------------------
0---------------1---------
------0---------------0---
--------------1-------0---
0--------------1----------
--------------1-------0---
-----------1--------------
----------------------0---
--------------------------
--------0-------------0---

Generation = 12, Population = 78.
--------0-------------0---
0-0-0-101--0---1---0---0--
----0-------1---------0---
---0------1-------0-------
------------------0-------
0-120-----210--1---0-----0
0-------0-------0-0-------
------00------1-------1---
--------------0-----------
0-----010------1-------1--
--1-1-------1-1-----2-----
--11------10------2-------
----------0-----------4---
--0-0------0-------0------
0-------0-1-----1-----1---
------00-------0------0---
--------0-----0---0-------
0--------------0----------
----0-------0-0---0-------

Generation = 16, Population = 26.
----------------------0---
--------------------------
----------------------0---
--------------2-----------
--------3-----------------
--------------1-1----2----
--------------------------
---2----------------------
----------------------2---
0--------------2----------
------3---------------3-0-
3-------------1-------1---
------1-1-----1-----------
--------------------------
------1-------1-----------
-----------1-------2------
--------------------------
2--------------0----------
--------------------------

Generation = 20, Population = 75.
--------3---------0---0---
--------------2-0----0----
------------------2---0---
---0------3-------1-------
----2-------2-------------
1---------4-3--2-04-1----0
------3-----------------0-
2------3--------------2---
------0-------3---1-------
--2-1------0--3-1--0-2----
--4---3---2---4---4-4---2-
--230-----24-------3------
--2-2-------3-----3---8---
--------------------------
--2---1-----------1---5-1-
1------1------0-------20--
------2-1-----0-----------
2-1-0------0---0---0------
------1-------0-----------

Generation = 24, Population = 68.
--------------1-----------
0-------------210----0----
------3-4-----0---------0-
2-----2-------------------
2-----0-3-----0-1-----1---
------5-4----2--------211-
------3-------0-------1---
---3---------------3------
--------------5-----------
1-----144------2-------3--
5---------------2---4-----
--------3-----------------
------3-2-----4-5-----+---
2-------------220----2----
3-----1-------5-------7---
-------------------------2
------4-------4-------5---
2-----131------1-------2--
--------0-----1-------1-0-

Generation = 28, Population = 149.
0---------1-----5-1---0-0-
1-0-2-5-2-2132612122101000
--1-3-4-----4-----6-1-1-1-
---00-----4--------0------
--------------------3-----
--2-5-54634-6-2-135423-133
2-2---5-2-----0-1---3---1-
4-----332------2-------2--
3---------1-------1-------
3--3--5-5-4-14522----35310
9-6-3-------2---4---4---2-
---31-------6------3-----0
--6-5-3-------------2-+---
--3-2-----532----2420----0
7---0---0-----6-2---1-7-2-
--------3------------2-1--
--2---6---------3-------1-
---0--131-0-1-3-1----1-2-0
1---3-----2-0-------0---0-

Generation = 32, Population = 27.
--------------------------
2--------------1----------
--------7-----------------
--------------3-----------
----------------------4---
-----3---------2----2-6---
----------------------4---
---3----------------------
--------------------------
--------------------------
------------3---------6---
------3---------5---------
2-------5-----------------
6--------------2----------
9-------2-----------------
---0-------------0-------2
----------------------5---
--------------------------
--------6-------------1---

Generation = 36, Population = 76.
--------4-------------2---
2-1-40-----2-------22-2---
----3-------6---------6---
---1------5-------4-------
------------------5-------
20-------3-3---32-75----4-
--------2---2-----5---6---
------33------6-5---------
3-------2-------------5---
4----5--------------2-6---
+---------------6-6---6---
--4-------4-8----2--7----1
--9---------4---------+---
--8-3------3-------2------
--6-----2-----------------
------13-----0--3------1--
5-----------------0---5---
4--------------1----------
1---4---6---1-----1---1---

Generation = 40, Population = 71.
----------------------4---
-----1922------1----6-20--
0-----------7---2---------
--------------3-2-----7---
7-------------2-------6---
-1-----5----736-------745-
7-------4-----5-------6---
-----------4-----0-------3
----------------------6---
4--------------2----------
----4---------8-----5-----
8-------7---------------2-
4-----6---------8---------
-----1203------3----4-51--
+-----3-3-------3---------
---1-----3-3-------5------
6-------2-----5-------5---
6--------------2----------
--------6---1-2-4---------

Generation = 44, Population = 159.
------------1-4-8-4---6---
--13639-435--5913-2-6----3
0-6-5-------7-5-3---6-----
----------624----2--2----0
--2-4-----3---------------
61-5--65-664----44-7--8575
8-5-1-----4---9-3---8-----
5------44----0946-----+26-
------5-------7-4-1---8---
-35-257-8--12572---02---4-
+-----5-3-4---8---6---7-5-
--77-----3--+----2-4+---31
6---8---8-5-5-7-----6-----
-1844----59-4---4-4-----10
----7---5-5-4---3---------
3----4--+----0---------32-
7-4---8-3-2---5-----------
+-1-21344--0-------10-32--
----4-1-6-3---2---1-0-1---

Generation = 48, Population = 83.
3-------4-------------8---
3-------------+35----2----
0-----9---------------9-3-
4-----6---------6-----8---
------2-9---6-2-----------
----7-8--7----7-4---------
------8-------+-------7---
-----------4-----1-5-----5
6-------5-------------+---
4----5--------------4-8---
+-7---7-7-----9-------8-5-
+-----4-9-----7-6---+-4---
------9-+---5-7-8-----+-3-
8-------------748----4----
------6-------6-4-------3-
-5-2-----7----------------
------9-------5-------8---
+----1--------------0-3---
--------7-----2-------3-0-

*** Life<FredkinCell> 11x20 ***

Generation = 0, Population = 7.
---0----------------
--------------0-----
--------------------
----0--0------------
-----------------0--
--------------------
--------------------
--------------------
--------------0-----
-----0--------------
--------------------

Generation = 4, Population = 25.
-------1---------0--
----------0---0---0-
---0----------------
0--0----1--0--------
---0---------00----0
-----1--------1-----
--------------------
----1--0------------
----------0------10-
-0---0---0----------
--------------0-----

*** Life<FredkinCell> 24x18 ***

Generation = 0, Population = 9.
------------------
------------------
-----------------0
----------0-------
---0--------------
------------------
------------------
--0---------------
------------------
------0-----------
------------------
------------------
------------------
------------------
------------------
------------------
-----------------0
------------------
------------------
-----0---0--------
--------------0---
------------------
------------------
------------------

Generation = 1, Population = 34.
------------------
-----------------0
----------0-----0-
---0-----0-0-----0
--0-0-----0-------
---0--------------
--0---------------
-0-0--------------
--0---0-----------
-----0-0----------
------0-----------
------------------
------------------
------------------
------------------
-----------------0
----------------0-
-----------------0
-----0---0--------
----0-0-0-0---0---
-----0---0---0-0--
--------------0---
------------------
------------------

Generation = 2, Population = 34.
-----------------0
----------0-------
---0-----------0-0
--------0---0-----
-0---0-----------0
--0-------0-------
---0--------------
0---0-0-----------
------------------
--0-0---0---------
------------------
------0-----------
------------------
------------------
-----------------0
------------------
---------------0-0
-----0---0--------
--------------0--0
---0-------0------
------------0---0-
-----0---0--------
--------------0---
------------------

Generation = 3, Population = 94.
----------0-----0-
---0-----0-0---0--
--0-0---0-0-0-0---
-0-0-0-0-0-0-0-0--
0---0-0-0-0-0---0-
-----0---0-0-----0
0-----0---0-------
-0-----0----------
0-0---0-0---------
-0---0-0-0--------
--0-0-0-0---------
-----0-0----------
------0-----------
-----------------0
----------------0-
---------------0--
-----0---0----0---
----0-0-0-0---00--
---0-0---0-0-0-00-
--0-0-----0---0-00
---0-0---0---0-0-0
----0-0-0-0-0-0-0-
-----0---0---0-0--
--------------0---

Generation = 4, Population = 32.
---0-------------0
------------------
-------------0-0--
--0---0-------0---
-------0----------
------0-----------
-----------------0
0-----0---0-------
---0--------------
--0-------0-------
------------------
--0---------------
-----------------0
------0-----------
------------------
-----0---0--------
-------------010--
------------------
------------------
-0---0---0---0----
----------0------1
------------------
------------------
-----0---0--------

Generation = 5, Population = 91.
--0-0-----------0-
---0---------0-0-0
--0---0-----0-0-0-
-0-0-0------------
--0---0-0-----0---
-----0-----------0
0---------0-----0-
-0-0-0-0-0-0-----0
0---0-0-----------
-0-------0-0------
----------0-------
-0-0-------------0
--0---0---------0-
-----0-0---------0
-----00--0--------
----0-0-0-0--000--
-----0---0--01-10-
-------------000--
-0---0---0---0----
0-0-0-0-0---0-0--0
-0---0-----0-0--0-
----------0------0
-----0---0--------
----0-0-0-0-------

Generation = 6, Population = 93.
-0-0-0-------0----
--0---0-------0---
---0---0---0-0-0--
0-----0-0---0---0-
-----0---0---0-0-0
0-0-0---0-0---0---
---0---0-------0-0
0---0-0---0-0-----
-0---0-----------0
--0-0-0-0-0-0-----
---0-------------0
0-0-0-0---0-------
---------------0-0
--0-01--00--------
-------------000-0
---0--1----0------
-----------012-210
-0-----------1----
----------0--100-0
---------------0--
--------0---0--0-1
-0-----------0----
----------0------0
---0-0---0-0------

Generation = 7, Population = 128.
0-0---------0-----
---0-------0-0----
0---0-0---0-0-0---
-0-0---0-----0-0--
--0-----0-----0-0-
---0-----0-0---0--
----0-------0-----
-----0---0---0-0--
----0-0-0-------0-
---0-0-------0----
0-0-0---0---0---0-
---0---0-0-0---0--
0----00-000---0---
-0--1200110--00---
--00000-00-001-1--
--0-00-0--01--0-0-
-0-0--0---0----3-1
0-0-------00----0-
-0-------0-00-----
--------0-0-00--0-
-0-----0-0-0--01--
0-0-----0-0---00--
-0-0-0-------0--0-
--0---0-0-0-0----0

Generation = 8, Population = 29.
------------------
------0-----------
---0-----0-0------
--0-------0-------
---0-------0-----0
------------------
------------------
----0-----0-------
-----------------0
0-------------0---
-----------------0
-----0---10-------
---0----------1---
------------------
------------------
--1---------------
---------0-0------
------0-----------
------------------
-------------1---0
------0-----------
-----0---0--------
------------------
------------------

Generation = 9, Population = 89.
------0-----------
---0-0-0-0-0------
----0-0-0-0-0-----
-0-0-------0-----0
----0-------0---0-
---0-------0-----0
----0-----0-------
---0-0---0-0-----0
0---0-----0---0-0-
-0-----------0-0--
0----0---00---0-0-
---00-0-0210--0--0
--0-00---00--0-0--
---0----------0---
--0---------------
-0-0-----0-1------
--0---0-0---1-----
-----0-0-0-0------
------0------1---0
------0-----0-0-0-
-------0-0---0---1
----0---0-0-------
-----0---0--------
------------------

Generation = 10, Population = 95.
---0-----0-0------
--0-0---0-0-------
-0-0-0-0-0---0---0
0---0-0-0---0-----
-0-0-0-----0-0-0-0
--0-0-------------
---0-------0------
0-0---0-0---0-0---
---------------0--
0-0-00---0--0---0-
---0----------10--
0--1----1--10-1---
-0---1------0---00
--0--2---10-------
---0-----0-0--0---
0---0-1-----------
-------0-0-0-2----
--0-0---0----1---0
------1--0-0------
-----01--0-0-----0
----0---0---------
---0-------0-0---0
------0-----------
-----0---0--------

Generation = 11, Population = 142.
----------0-0-----
-------------0---0
--0---0-------0-0-
-0-0---0-----0-0--
--0-----0-0-0-----
-------------0-0-0
0-0---0-0-0---0---
-----0---0--------
----000-00--------
---0110-0-00-000-0
---1-0--00-0-0-1--
--0200-0-212--2-00
---0020-000-101011
----130-1-1-0-0-00
0----00-010-01-1--
-0-----------00---
0-0-----0----31--1
-0---00--0--020-0-
--0-0-20-1-101----
-----1-0-1-10---0-
------00-----0----
--0---0-0-0---0-0-
---0---0-0-0-0---0
----0---0-0-------

Generation = 12, Population = 92.
---------0-------0
--0---0---0-------
-----0-------0-0--
0---0-----0---0---
-------------0---0
0-----0-------0---
---0-----0-0-----0
0-0--10-01----0---
-----------0-000-0
--0-2-----1-------
-------------1-2--
-01-110--32--03---
-------0-110-----2
0-----1-------1---
-----------------0
0----01--00--1---0
---0-000-----423--
--0--1---10-------
------------------
--0------2---1-0-0
--0------000------
-0---01--0---0----
------------------
-----0---0---0---0

Generation = 13, Population = 176.
--0---0-0-------0-
-0-0---0---0-0-0-0
0-0---------0-0-0-
-0-0-----0-0-0---0
----0-0---0-0-0-0-
-0-0-0-0-0-0---0--
----00---1--0---0-
----021-1-0---1---
0---000-00---111--
-0---1---0----0--0
-0---00--0--021-0-
012-2-1-1---0-4--0
000-020---2110--1-
-0---3---110-0-0--
-----0---10--10-01
-0-00---011102-001
0----1110---1--411
-0--02-00210-200--
-----0----0--1-0-0
-010----03-10-----
--10-00-01-10--1-1
0---012001-00-0---
-0----0----------0
----0-0-0-0-0-0-0-

Generation = 14, Population = 157.
-----0-0-0-0-0----
----0-----0-0-0---
---0---0-0-0---0-0
--0---0-0-0---0-0-
---0-0---0---0-0--
0----10--10-0---0-
-0---1-0-2---00--0
0--01---2--00-2-0-
---0--------02-200
-10---0---1-00----
-------0-100--2--0
----3-----2---500-
-----3-00--22-----
-1------1---0-1-00
---0-10--210-21---
---1101--22-1-0--2
-0-00--210-024-52-
--00130-1-210--1--
--00-120-111-201--
012-0-10--0-------
0---0--012-210----
--0-12--1---------
--0------000------
-0-0--1-----------

Generation = 15, Population = 182.
----------0-0-----
---------0---0---0
--------0-----0-0-
-0-0---0----------
0----10--10---0-0-
---0021-021--00---
0-00-20-03-001-00-
--0-2-----01--3010
00-1--0-0-0-1-1311
021--1----20---00-
-00-0----2-1--3---
---2----1-3200--1-
-0-----1-1-3-0-0-2
0-00--1-2-10102-11
-0010--0--21-3210-
-01221---3--2-1---
0-0111132----52-3-
----24--2----2----
0-1-----02--03--0-
---011-1-3110-00--
1--0----2303-10---
001--32-210-00----
--1-000--1-10-----
0-0-00-0-000------

Generation = 16, Population = 35.
-----------------0
------------------
-0-0--------------
----00---00-------
-----------0--1--0
------2-----------
------------------
--1---------0-----
------------------
--------0-----0---
---1--------------
----------4-------
--------------1--3
-----3---1--------
------------------
------------------
-0-2-------------1
------------------
-----------------0
-----2---422---1--
2--1--0-----------
------------------
------------------
--1---1-----------

Generation = 17, Population = 111.
----------------0-
-0-0-------------0
0----0---00-------
-0--110-011---0--0
----010--1--00-00-
-----2-0---0--0--0
--0---0-----0-----
-0-0-------1-0----
--0-----0---1-1---
---0---0-0---0-0--
--0-0---0-0---3---
---2-----3-2--5--0
-----3---12--0-01-
----1-1-2-1---2--1
-----1---2--------
-0-2-------------2
0---1-----------3-
-0-0--------------
-----1---211---10-
0--01---05-30-0-00
-01-0--0-303---1--
0--0--2-----------
--1---0-----------
-0-0-0-0----------

Generation = 18, Population = 104.
-0-0-----------0--
----00---00-------
-0-0-1-----0--0---
--00----1--00-----
-0-0-----2--11-110
--0--3--021-0-----
-----------0--0--0
0---2-1-2-0-------
---1--------------
--1---0---------0-
-0---0--------4--0
-----1---4--0-6---
---0--------2--123
---0------20------
-0-1----------2---
-----1---3--------
-0-2-1---------5--
-----4---221---1--
00----2--------2--
---1----16-41----1
212-10--2--------1
--1--33--100---0--
0--0--1-----------
0-1---1-0---------

Generation = 19, Population = 204.
0----0---00---0-0-
---01-0-011---00--
0-01020-00-1-0-0--
-01111-0--1---0000
0--101--03--22-2-1
----0-2013201-000-
0-0-020--30--1-00-
-0------------3--0
0-------0-0-----1-
-------0------00--
0---01---2--0252--
-1-2321-1-421-7-1-
--0103---12-30-2-4
-10-1----131--2011
0--201---221-3-1--
----221-0-2---10--
0-----1---00--263-
0--025--23-20-0-0-
1110---00-1-0-0300
-----211-7-521-102
3--12--0330-1--102
--2----0-2-10-0-00
101-0--00101---0--
1----02--0--------

Generation = 20, Population = 108.
-0-0-------0-010-0
------1-----------
-0---3-0---------0
012--20-11--001---
-------0--0--3---2
--0-----2-3---1---
-0----------------
0---221-21------1-
-----------0------
----210--02-0-----
-------0----------
--2---2-----2-8---
-0-2------3--1-3-5
-2---3--22---03---
---3-------------1
-----3---3-1---1--
10-2-123-----537-1
-----6---4--------
-------------3-4--
-12--3-2-8-6-202-3
-1-23--1--1------3
--3---3-----------
-----------------0
2-1--13--1-0---0--

*** Life<FredkinCell> 27x26 ***

Generation = 0, Population = 8.
--------------------------
--------------------------
--------------------------
--------------------------
--------------------------
--------------------------
--------------------------
----------------------0---
--------------------------
--------------------------
--------------------------
--------------------------
--------------------------
--------------------------
--------------------------
--------------------------
----0---------0-----------
--------------------------
----------0-----0---------
--------------------------
---0----------------------
--------------------------
--------------------------
--------------------------
-----------------0--------
--------------------------
-------------------0------

Generation = 1, Population = 31.
--------------------------
--------------------------
--------------------------
--------------------------
--------------------------
--------------------------
----------------------0---
---------------------0-0--
----------------------0---
--------------------------
--------------------------
--------------------------
--------------------------
--------------------------
--------------------------
----0---------0-----------
---0-0-------0-0----------
----0-----0---0-0---------
---------0-0---0-0--------
---0------0-----0---------
--0-0---------------------
---0----------------------
--------------------------
-----------------0--------
----------------0-0-------
-----------------0-0------
------------------0-0-----

Generation = 2, Population = 24.
--------------------------
--------------------------
--------------------------
--------------------------
--------------------------
----------------------0---
--------------------------
--------------------0---0-
--------------------------
----------------------0---
--------------------------
--------------------------
--------------------------
--------------------------
----0---------0-----------
--------------------------
--0---0---0-0-------------
--------------------------
---00---0---0-----0-------
--------------------------
-0---0----0-----0---------
--------------------------
---0-------------0--------
--------------------------
---------------0----------
--------------------------
-------------------0-0----

Generation = 3, Population = 88.
--------------------------
--------------------------
--------------------------
--------------------------
----------------------0---
---------------------0-0--
--------------------0-0-0-
-------------------0-0-0-0
--------------------0-0-0-
---------------------0-0--
----------------------0---
--------------------------
--------------------------
----0---------0-----------
---0-0-------0-0----------
--0-0-0---0-0-0-----------
-0-0-0-0-0---0------------
--000-0-0-0-------0-------
--0110-0-0-0-0---0-0------
-0-000--0-0-0---0-0-------
0-0-0-0--0-0---0-0--------
-0-0-0----0-----00--------
--0-0-----------0-0-------
---0-----------0-0--------
--------------0-0---------
---------------0---0-0----
------------------0---0---

Generation = 4, Population = 30.
--------------------------
--------------------------
--------------------------
----------------------0---
--------------------------
--------------------------
--------------------------
------------------0-------
--------------------------
--------------------------
--------------------------
----------------------0---
----0---------0-----------
--------------------------
----------0-----0---------
--------------------------
0--1----0-0-------0-------
--------------------------
------0-----0-0-----0-----
--------------------------
----1--0------0--1--------
--------------------------
----------0-----1--0------
--------------------------
---0---------0-----0-0----
--------------------------
---------------0-0-----0--

Generation = 5, Population = 102.
--------------------------
--------------------------
----------------------0---
---------------------0-0--
----------------------0---
--------------------------
------------------0-------
-----------------0-0------
------------------0-------
--------------------------
----------------------0---
----0---------0------0-0--
---0-0-------0-0------0---
----0-----0---0-0---------
---------0-0---0-0--------
0--0----0-------0-0-------
-00-0--0---0-----0-0------
0--0--0-0-0-0-0---0-0-----
-----0-0---0---0---0-0----
----0-00----0----0--0-----
---0-00-0----0-00-0-------
----0--0--0---0-00-0------
---------0-0---0-00-0-----
---0------0--0--0----0----
--0-0-------0-0---0---0---
---0---------0-0-0-0-0-0--
--------------0---0---0-0-

Generation = 6, Population = 60.
--------------------------
----------------------0---
--------------------------
--------------------0---0-
--------------------------
------------------0---0---
--------------------------
----------------0---0-----
--------------------------
------------------0---0---
----0---------0-----------
--------------------0---0-
--0---0---0-0-------------
----------------------0---
0--00-----0-0-------------
--------------------------
011--0--0-----0-----------
--------------------------
0--1---1----0---00----0---
--------------------------
--0--1---00---01----0-----
--------------------------
---00--00---00----10------
--------------------------
-0---0----00----0----0----
--------------------------
---0-------------------0-0

Generation = 7, Population = 217.
----------------------0---
---------------------0-0--
--------------------0-0-0-
-------------------0-0-0-0
------------------0-0-0-0-
-----------------0-0-0-0--
----------------0-0-0-0---
---------------0-0-0-0----
----------------0-0-0-0---
----0---------0--0-0-0-0--
---0-0-------0-0--0-0-0-0-
--0-0-0---0-0-0----0-0-0-0
-0-0-0-0-0---0------0-0-0-
0-000-0--------------0-0--
-00110---0---0--------0---
-00000--0-0-0-0-----------
1-210-00-0---0-0----------
-000-0-00---0-0-00----0---
-00-1-0-0--0-0-0110--0-0--
0-00-0-0-00-0-0000--0-0---
-0-01-0-0110-0120--0-0----
--0000-0000-0000--000-----
--01100110-0110--0210-----
-0-000-00-0000--0-00-0----
0-0-0-0--0110--0-0--0-0---
-0-0-0----00----0----0-0-0
--0-0-----------------0---

Generation = 8, Population = 31.
--------------------------
--------------------------
--------------------------
--------------------------
--------------------------
--------------------------
--------------------------
--------------0-------0---
----0---------0-----------
--------------------------
----------0-----0---------
--------------------------
---1----------------------
--------------------------
--------------------------
----------------------0---
--3---1-----0----0----0---
--------------------------
--1-----1---------10----0-
--------------------------
---1-------1-------1------
--------------------------
-----------------1--------
--------------------------
----1----1----0----------0
--------------------------
---0------00----0--------0

Generation = 9, Population = 111.
--------------------------
--------------------------
--------------------------
--------------------------
--------------------------
--------------------------
--------------0-------0---
----0--------010-----0-0--
---0-0-------010------0---
----0-----0---0-0---------
---------0-0---0-0--------
---0------0-----0---------
--0-0---------------------
---0----------------------
----------------------0---
--0---0-----0----0---010--
-1-1-0-0---0-0--0-0--010--
------0-0---0----000--0-0-
-0-1---1-0-------1210--0-0
--00----0--0------0-----0-
--0-1-----1-0-----0-0-----
---0-------0-----0-0------
----------------1-2-------
----0----0----0--0-------0
---0-0--0-1--0-0--------0-
---00----000--0-0---------
--0-0----0110--0-0------0-

Generation = 10, Population = 89.
--------------------------
--------------------------
--------------------------
--------------------------
--------------------------
--------------0-------0---
----0---------1-----------
------------0---0---0---0-
--0---0---0-0-------------
--------------1-------0---
---00---0---0-----0-------
--------------------------
-0---0----0-----0---------
----------------------0---
--01--0-----0----0----1---
--------------------0---0-
1-3-------0---00--1-0-----
----------------------1---
0-121-----000---1--210----
--------------------------
-01--1--01---0----11-0--0-
--------------------------
---11----0-0--00---------0
--------------------------
--01--00--2-0----0-----0--
--------------------------
-0-010--0-2210--0-0----0-0

Generation = 11, Population = 271.
--------------------------
--------------------------
--------------------------
--------------------------
--------------0-------0---
----0--------010-----0-0--
---0-0------00200---0-0-0-
--0-0-0---001010-0-0-0-0-0
-0-0-0-0-0--101-0---0-0-0-
--000-0-0-0--0-0--0--0-0--
--0110-0-0-0-00--0-0--0---
-0-000--0-0-0---0-0-------
0-0-0-0--0-0---0-0----0---
-000-00---0-0---00---010--
-01210-0---0-0--0-0-00200-
0--0--0---0-0-00-0001010-0
---1-----0-0-01100--101-0-
---00------00-000-00---0--
--2-20---01-10-0-123-1----
00-000--000000--0-0-0---0-
01211-00121-0-1--122--00-0
-00000--0--0-000--00-0--00
--0220--1---11111-------0-
--0-0-00-0000-00-0-----0-0
-012101101---0--0-0---0-0-
-00-00000--0-0--000------0
0--1-100--3--100---0--0---

Generation = 12, Population = 98.
--------------------------
--------------------------
--------------------------
--------------0-------0---
----0---------1-----------
--------------------------
----------0-----1---------
----------1---------------
0--1----0-0-------0-------
--------------------------
------0-----0-1-----0-----
--------------0-----------
--1-1-10----0-0--1----1---
--------------------------
--2-----0-0-----1-10----1-
------------------1-------
1-3---1-0-01-1--1-10-1----
--------------------------
0---3-0-----2-01-2--1-000-
----------------------0---
--3-2-1--3--1-2--2----11-1
--------------------------
--13----2-00-2--2-21-0--10
--------------------------
0----1--1----1--1-10-0-0-0
--------------------------
----1-1--0--1--1-0--00-0-0

Generation = 13, Population = 234.
--------------------------
--------------------------
--------------0-------0---
----0--------010-----0-0--
---0-0-------020------0---
----0-----0---1-0---------
---------010---0-0--------
0--0----00-0----0-0-------
-00-0--0--10-----0-0------
0--0--0-0-0-0-1---0-0-----
-----0-0---0--20---0-0----
--0-0--0-----0-0-0--0-0---
-0----210--0--100-0--0-0--
----0-000-0-0-0-0000--1-0-
-0-2---0---0---0---10--0-0
0-----0----0-0---0-0-0--0-
---1-0----12--11---1--1---
--0-0---0-000000000000100-
-0-2---1---0--12--23----10
0-0------0-----0----00-000
-1-----01-11---20-2--0-2--
---00-0-0000000-0000-0000-
-0242--1--11--11--32--0021
0-00-0----00-----------00-
-0--1-11-1--0-00--21------
0---000-00--00-000000-----
---1---00-32-10---0011----

Generation = 14, Population = 115.
--------------------------
--------------0-------0---
----0---------1-----------
------------0---0---0---0-
--0---0---0-0-------------
----------1---2-------0---
0--00-----2-0-------------
--------1---1-------------
011--0--0-----1-----------
----------1---2-----------
0-01--01--------00--------
------------0---0---------
0----0---0-----1--1-------
--------------1---1-------
------01---1-0-----21-----
----------------0---1-----
1---0---00-3-1-------12---
------------------1---2---
------0--0-1---3----1-002-
--------------------1---1-
---12--1-----0---23---1-01
----------------------1---
-13-------22---2----0----2
--------------------------
0---2--212--111--------00-
--------------------------
0-0--1-1-0431-1-0--1220---

Generation = 15, Population = 311.
--------------0-------0---
----0--------010-----0-0--
---0-0------00200---0-0-0-
--0-0-0---001010-0-0-0-0-0
-0-0-0-0-01-102-0---0-0-0-
0-000-0--0-0-0-0-----0-0--
-00110--003-102-------0---
-00000-02010201-----------
1-210-00101-1020----------
-0-0-00000-0-03000--------
--1210120-0-0-20-10-------
--00-000-0-0-0--1-0-------
-0--1-2-0-0-0----120------
0----000-0-0-----02-0-----
-----0120-0-----1--3-0----
0---0-0000-----0-0--2-1---
-1-1-0-011----1-1-1--2-0--
0---0-0-0----0-0-0-00---0-
-----0-11---2-1-1-232----0
---00-00-0-0-0-0-00020----
--32311-1---1-2-0342002--2
-0000--0--00-0-0-00-00200-
0244-----0331-1-2--2-00-2-
000-0--000000000----0--000
-0-2-113-3212-20------0110
--0-00--0-00-0--0--000000-
---11----1--2----002--10--

Generation = 16, Population = 31.
----0---------1-----------
--------------------------
----------0-----1---------
--------------------------
---1----------------------
--------------------------
--------------------------
------0-------2-------0---
-----------------0--------
--------------------------
-------------------0------
--------------------------
-------------------1------
--------------------------
-----------------0--------
--------------------------
1---------1---------1-2---
--------------------------
0--23---------------3-----
--------------------------
----------11----1--3------
--------------------------
----2---------2-----------
----------------------0---
-1-----------------1------
--------------------------
---2-------------1--------

Generation = 17, Population = 110.
---0-0-------0-0----------
----0-----0---1-0---------
---------0-0---0-0--------
---0------0-----0---------
--0-0---------------------
---0----------------------
------0-------2-------0---
-----0-0-----0-0-0---0-0--
------0-------2-0-0---0---
-----------------0-0------
------------------0-0-----
--------------------------
------------------2-0-----
-----------------0-0------
----------------1-1-------
0---------0------0--2-1---
-1-------1-3-------1---0--
---00-----0-----------2---
-02340-------------3-1----
0--00-----00----0--02-----
---------3221--2-34-0-----
----0-----00--0-0--0------
---4-0-------2-2------0---
-0--0---------0----0-0-0--
0-1---------------2-0-0---
-0-0-------------0-0------
--0-1-----------0-0-------

Generation = 18, Population = 83.
--0-0-0---0-0-1-----------
--------------------------
---00---0---0-----0-------
--------------------------
-0---0----1-----0---------
------0-------2-------0---
---1-------------0--------
----0---2---2---0---0---0-
---------------0----------
------0-------3-------0---
-------------------0-0----
--------------------------
-------------------1-0----
--------------------------
0---------0----0----1-2---
--------------------------
--310---1---0----01---2-0-
--------------------------
-1---10----1----1-243-----
--------------------------
0--2----14--20---45-10----
----------------------2---
-24---0---331-------------
--------------------0---0-
----2---------2------0----
----------------------0---
---2-1---------1-1--------

Generation = 19, Population = 236.
-0-----0-0-----0----------
--00--0-0-0---1---0-------
--0110-0-0-0-0---0-0------
-0-000--0-0-1---0-0-------
0-0-0----0-0--20-0----0---
-0-0---0--1--0-000---0-0--
--0---0-0---1-2---0-0-0-0-
-----0-0-0-0-0-----0-0-0-0
----0-0-1---1-------0-0-0-
-----0-0-----0-----0---0--
------1-------2---0-------
--------------------------
------------------2---1---
0---------0----0---0001---
-0-------0-1--0-1--3---0--
0-000---0-0-0--0-01-2---0-
-14-10-0-1-3-1--1121-2---0
-000000-0--00---00-00-2-0-
0-2-4211--1-2--3--3-41----
00-0-00-00-000--00-0-0----
-13-3--12522312-156-21----
0000--0-0000-0---00-0--0--
0354-0-1-04-22------0-0-2-
-00-0-0---000-0----0---0-0
---2-1-------1-0--------1-
---000--------00-0-----0--
--0---1-------1---0---1---

Generation = 20, Population = 95.
0--0----0-------0-0-------
--------------------------
----2-0-----0-------0-----
------0-------1-------0---
----1--0------3--1--------
--------------------------
----------3-----1--0------
--0-----------------------
---1---------0-----0-0----
--------------------------
---------------0-1-----0--
------0-------0-------0---
0---------0----1-1--0-20--
--------------------------
0--21--------0-----410----
--------------------------
--5-2-1---14--1---3-----0-
--------------------------
1-3----21-----1-12------2-
----------------------0---
02----12--3-4-3----3--22--
--------------------------
----2---2-5------13-1-----
------------------0-------
-1-3-2----21---110-1---1--
--------------------------
-0--1--1-----12----2-2----

Generation = 21, Population = 261.
-00-0--0-0-----0---0------
0--00-0-0---0---0-0-0-----
---1--10---0-02----0-00---
-----01-----1020-0--00-0--
---1-0--0----0400-0---0---
----0--0--1---2-00-0------
--0------0-0---0-00-0-----
-0--------1--0--0----0----
----0-------1-2---0---0---
---0---------0-0-0-0-0-0--
------1-----------0-----0-
0----0-0--0--0-0----0010--
-0----2--0-0------21---10-
---00-----0--0-0-0-0-010--
-02320------0-0---15-12---
0-00--0---00-00---1020--0-
-1-----0-12501-1-1-1---0-0
0---0-000-00----001-------
---3--1320---0--233---00-0
-00---0-0-0-0---00-0-01-1-
133--12325-----2--6-21-30-
00--0-000---0-0--0000-20--
---4-0-1---3----22---0----
-0-000--0--0---0001-0--0--
0-----1--3322-22-12-0-0-1-
---000-0--00-00000---0-0--
0-02-11-0---2231--0---1---

Generation = 22, Population = 169.
-11010--0-0-0-1-----------
------1-------1-------0---
0-02--21--0-----10----1---
----0---0---2---0---1---0-
--0-11---01----1----0-----
--0---0-------3-------0---
---11--00---10----10------
0---0---------------------
-1---0----10----0----0----
--0---0-------3-------0---
0--2------0---------0-00-0
----0---0---0---1---1---0-
--111---0---0-----3---2210
------0-------1-------2---
-13-31--------1----612--1-
--------------------------
1--12-1112----1-12-2-22-0-
----------------------2---
11---224-111--133------12-
--------------------2---2-
---2-2-4-6-------57------2
------------------1---3---
0-55-1022-54--2--3321-----
----------------1---1-----
-----2---44-31-3-2--10---0
------------------0-------
--1-1-21-14-334----2------

Generation = 23, Population = 335.
02---1-0------20------0---
00--0-2-0---002000---010--
--13-0-2-0-00-20-10-00200-
0---1-1----0-0--1--02000-0
-01--2---1201------0100-0-
-01-----001-0-----0000-0--
0--2-0-110-021---0210-0---
----1--02-1020--0-00-0----
---------0211-20-0--0-----
0------0---0-0-00---0-1--0
-0----1-00-00-2-0--01--10-
0-0010-0100010-0-00020-010
-02--02110-0101-01-100--21
-0-0---00---0020--200-3--0
024-42-------020--17-3-0-0
0000-00000------00--2-1---
-1523-2--32--1--23---3---0
-0-000--0-00---0-0-0--3---
223-43-5-2-2202-43--4--2-0
00-0--0---00--000000-0--3-
--3-------3-----16-32-2---
0-0---0-0000--0--0--00-0-0
--66-2--3-6522-2-44--00---
0-00--0000-0000--01------0
----2-1-155-42--1--1-10-1-
--0-0000------00----00---0
-0----32-25-4-51----2-----

Generation = 24, Population = 99.
--1---0-----0----0----1---
--------------------------
--24----0---------10----1-
--------------------------
---1------31----0--1------
--------------------------
----1---------2--1--------
0-----0-------------------
1---0----13---3-----1-0--0
--------------------------
0--21-----01----1---2----0
--------------------------
---1------0-----1--2-----2
--------------------------
----5----0----3----------1
------1-------0-----------
-26---3-1---0-1--432--2-0-
--------------------------
--4---2-2--3-----4-4----2-
--------------------------
--4-----2--2-----77-----02
--------------------------
-37---0-----3----5-2--1---
--------------1-----------
0---32---662--2-----1-1--0
--------------------------
0---1----36-----0--23----0

Generation = 25, Population = 279.
-2-0-1-0---0-0--0-0--0-0--
---0--2-0---0----000--1-0-
-0352--2-0-------1210--0-0
--0-----0-00----1-0-----0-
--1-1----1421--1-10-1-----
---00-----10--3-00-0------
0--2-00------1-01-2-------
10---0-0-01------0--0-0--0
21-1-00-1241-0-0---0---00-
---0-----0-0--3-0-----1---
-01320---0120--0-1-0-0--0-
0---1------0-------02-----
--2-1----0-0---1-13-0---2-
---00----00---2-0--0------
---3-21-0-0--040--------1-
-00-002000--00-0-010--1-00
1372-04--3-5--2125-313---0
-0---------00-0---1---3---
-2-3-3---21-2---4---4--2-0
------0-----------00-----0
-3-2---4-63-4---1883---313
-0----0-0--00-----10--3-00
0486-2-2---5-22-2---10-0--
000-000--0000020-0-01----0
-1-3431-17-34233---1---11-
-----0-----0--0-0--0--0---
-0-2-1--0473---1-10342--0-

Generation = 26, Population = 194.
0--1--0---0-0-20-01-0-1---
--------------------------
014630-----00------210----
--------------------------
-02122---2--20-----1-0--0-
0-----0-------------------
1-031-1--0-02-21----0-0--0
2-0-1---2-----------------
---2--102-5---3--00---011-
0-----0-------------------
-1-4311-0---10--1--12--1-0
--------------------------
00-1-0--11011---124-10-2-2
------0-------3-----------
-2-4---21-11--5--01---202-
----1---1---1---0---------
2-833----4-60--2-----42--1
------0-------1-----------
23------23233023-4---1---1
--------------------------
14--3-2-274251-22--42--424
--------------0-----------
--9723---0-----2--42-11---
------------1---1---------
-2145---2-6453---22----22-
--------------1-----------
0----2321---4---02-4-3-0-0

Generation = 27, Population = 343.
-21-11-0-0----31-12----0--
-00-002---00--20-000-01---
1----12---0110----23-12---
0--------0-0-0------2---0-
-1---3--0-42314---0---00-0
1-----10---0-030---0000-00
------21---13-321--1---00-
3-1-20--3-102--0-00-0--000
-----0-----1-0-00110-01-20
----0-----1-003-00000-1-00
---5-----0-22120-102300---
0---1-0--000-0---000-0----
11-----12---20112-5-21----
0--------0--00400---003-00
0------3--22-060-127-33-31
000020--2-00200---1--0-000
--9--04----7-1------15300-
-00000-00-0---20-0----3---
344---253-----34--3-4-0-2-
----0-0-------0-00-020-03-
2542----3----23338853125-5
0000-00-0-000--00-1-003000
-4+--40-3-6-3----553-220--
-0---0--000-2------0-0000-
03--63-3--7-64---331--1330
00000000--00---00-00-0--00
-0--13--24-3-35113--------

Generation = 28, Population = 196.
0-----0----0-0-------0--0-
--------------------------
2-4----2-------0----1--01-
1-----1-------------------
0-2-2----25------1-----1-1
--------------------------
--0-1------2-1--2--200--10
----3-----2---------------
2-2-011-2-52-13-1----1-131
--------------------------
0-1-3-1-01--3-3112--41-100
1-------------0-----------
222-1--2310---22-262-2--22
--------------------------
--44521------1--123814-042
--1---------------2-------
23-3315---280222-5332641--
--------------------------
45-----6-32--04--4-4511231
------1-------------------
-65--2-44742-344-996--36-6
--------------------------
-5--25---0-5-2-2-66-13-122
----------1-------1-------
-4---414---4-533-44211-4--
--------------------------
-1------3574-4-224-4-3--00

Generation = 29, Population = 311.
-2---1-0--0---3-----0-10-0
--0---20---0-0-0----00-0--
3--6----0-----2-1--3-12120
-0--10---00----0-0--2---00
1----30-0362----0-0---0---
1--------010-0--00-000-00-
-0--20--------32-123-10021
3--0--0-3030--2----00--0--
------2----3-24--1--1--2-2
-----0---01000-0-0--0-----
1-------1212-----30252-2-1
------00--0-10-01-002--0--
--3--023--11-0-3-3-3--2233
00-0-000000--0400---0--0--
-2----23----0-602-4--5-1-3
0-20------002-0000-0--1-00
3494--61-43----3-64----20-
---00000-0-00--0--1-----00
564------43331544--5-----2
0-0----00--0---0--0-20--3-
27623-25---3-4-5-+-73147--
--0-0--00-0---0----0003-0-
0-+7360-3-6------7--24-2-3
----0-00---0--2--0------00
0-1-65-52----6-4-55--2--3-
-----000000---1-0-0-0--000
0-1----24--5---3-5----1011

Generation = 30, Population = 177.
0---1-0100---------0102---
0-----3-------------------
-----12---01------2----23-
1-0-2---0-----------------
2-----1-1---31--1--------1
2---0-1---2---------------
1-0-31--1------32--4----32
--1---1-4---2-------------
2--2--302-5-1---121--113--
0---0-----2---3-----------
-1---11-23--3-----13-3-3--
1-0---------2---2---------
2---1--4--222-2---64223--4
1-0-----------5---2-------
03-------0--117-32----3244
1---2-----------1---2-----
--+5-------8----2------311
--0---1-----------2-------
----432-----4---543--1--33
----0---1-----------------
------364--4--46--9---582-
------0---1-------1-------
--------4-7-----286---2--4
--------0---2---1---1-----
-------6--746---1--2--1--0
----------1-------1-------
---2-3------4---2---43212-

Generation = 31, Population = 354.
12-1-----10-------21--30--
10--0---0000------0000100-
--4--2-200121----1-3--2340
2------0100020--1-0----000
-12--32-23624241-1------0-
-0101020-0-000-0---0----0-
2-1--221203-3-34312-0--043
-02-3-20-03030-0-000-00000
31---1----6-22402-2012-43-
1------0--30-0-000-0--1---
1----22-34-2413-1324----0-
20-01000100--000-0--2-10-0
-2-1-02-313---3323----423-
-0-00--0-000---00-3-00-00-
14--5---1-222----3--154--5
2-2--0---0-02000---0-01---
34-6--6---3-0--3364-2-44-2
-01-0-20---00-----30-0-0--
--43---63--3-1-46--55-1244
---01---20-00-0000---010-0
----32---7--54573++7-16-36
-----01--02---000--0---000
------025-853--2---324-22-
--------10--30-0--1--0----
------1--7---6-425---2-43-
---0-0-0-02------0--00-000
--1---3---75-4-3-5045---31

Generation = 32, Population = 29.
-----------------1--------
--------------------------
---6---------------4------
--------------------------
----------7-----1--1------
--------------------------
----3---------4--2--------
3-------4-----------------
--------------------------
--------------------------
---5----------------------
--------------------------
----------4-----3---------
--------------------------
----6---------7-----------
----------------------2---
------7-------------------
--------------------------
----4-----3---5-----6-----
--------------------------
-----------------+-------7
--------------------------
--------------------------
----------------------0---
---4---------7------------
--------------------------
-1---------6--------------

Generation = 33, Population = 109.
----------------0-2-------
---0-------------0-0------
--4-3-------------2-1-----
---0------0-----1---------
---------3-2---1-10-1-----
----1-----2---3-00-0------
2--3-2--2----1-43-2-------
-0--3--0-0----2--0--------
3-------2-----------------
---0----------------------
--1-3---------------------
---0------0-----2---------
---------1-2---3-3--------
----0-----0---5-0---------
---4-2-------1-0------4---
----2-2-------0------0-0--
-----1-1--------------4---
----0-2---0---2-----0-----
---3-3---4-3-1-4---5-1----
----1-----0---0--0--2----0
----------------3-+-----3-
-----------------0-------0
----------------------2---
---0---------0-------0-0--
--1-6-------6-3-------1---
-0-0-------0-0------------
0-1-------7-4-------------

Generation = 34, Population = 81.
---1-----------1-1--------
--------------------------
-1---2----1-----1--4-1----
--------------------------
---12---2---4-----11-0----
2-------0-----------------
--1---2---3-3--5----------
3-2---2---3---------------
---20---------4--2--------
1-------0-----------------
-1---2----1-----1---------
--------------------------
---11---3---2-----6-------
----------------------3---
--4-------2-2-------------
--------------------2---0-
----3---1-3---------2-----
----------------------3---
--4-----3-------643---1--4
--------------------------
----3-----4---57---73--8-7
----------------------3---
---7---------2---8-------4
--------------------1---0-
-----5---------4----------
----------------------0---
-1-------5-6--------------

*** Life<FredkinCell> 10x15 ***

Generation = 0, Population = 3.
0--------------
---------------
---------------
-----------0---
---------------
----0----------
---------------
---------------
---------------
---------------

Generation = 2, Population = 10.
--0------------
-----------0---
0--------------
----0----0---0-
---------------
--0---0----0---
---------------
----0----------
---------------
---------------

Generation = 4, Population = 10.
--0-0----------
----0----------
0--------------
-------0-------
0--------------
0-------0------
---------------
-----------0---
---------------
----0----------

Generation = 6, Population = 27.
------0--------
--1---00-------
----1----------
0---00--10-----
--0------------
2-0---01--00---
1--------------
0---0---00---0-
---------------
--0-0-0----0---

Generation = 8, Population = 10.
------2-0------
----2----------
---------------
---1-----------
---------------
--2---------1--
1--------------
----0----------
1--------------
-----------0---

Generation = 10, Population = 26.
----2-----0----
--11--1--------
------0-0------
-01-11------0--
1--------------
4--1------1---0
--1------------
------0----00--
--0------------
----0----0-0-0-

Generation = 12, Population = 36.
--1-2-----0-0--
0-3-2---1---0--
0-----2-0------
----3--0-------
3-----0-0------
6---1-1-0--2--0
--1-0----------
1--0----1--2---
1-0-1----------
--1-0--0----0--

Generation = 14, Population = 42.
--------------0
-------2------0
------------1--
-----3---1-00-0
----------0----
---2---2-122210
1-------0------
-1---0-11212200
--2---0--------
---0-11010010-0

Generation = 16, Population = 5.
---------------
-----------0---
---------------
---------------
4--------------
---------------
1--------------
---------------
---------------
----1------1---

Generation = 18, Population = 15.
---------------
---------0---0-
1--------------
-----------1---
--1------------
---------------
--1------------
----0------2---
2--------------
--2-1-2--0-1-0-

Generation = 20, Population = 15.
0--------------
-------2---0---
1--------------
---------------
--1-0----------
----2----------
--1-2----------
----0------2---
2--------------
1------12------

Generation = 22, Population = 33.
0-2------------
-----0-------0-
----2----------
----4--0---1---
------1--------
--2-2-2----2---
------0--------
3-1-2-0222---0-
4---3----------
--2-12334101---

Generation = 24, Population = 16.
0--------------
---23----------
1--------------
----6------1---
------3-1------
-----------2---
2-----0-2------
---------------
6--------------
--20--------2--

Generation = 26, Population = 43.
0-2------------
-05-512----0---
--0---2-1------
--226-1--1-1-0-
----2-----1----
----2----2-2-1-
--1-2-----0----
--10-------22--
--3---1-0------
314222----0-2-0

Generation = 28, Population = 45.
0-4-4-3-0------
1--37--33--0---
--0-3-2-1------
0------12------
--2-2-----1-0--
--3-2--2----2--
2---------0-1--
--323------44--
7-3-4-1-0------
5-----335--2--0

Generation = 30, Population = 49.
2-------2-0----
-2-----55-1--0-
--0---2-----2--
---2-32-22111--
--------------0
---2-13222332-1
--2---0-------0
-2---1--331641-
9-------2---1--
---2-4-3--1--1-

Generation = 32, Population = 5.
---------------
---------------
---------------
----6----------
---------------
----3------3---
---------------
-----------6---
9--------------
---------------

Generation = 34, Population = 19.
---------------
----8----------
---------------
--2-6-2----1---
---------------
--4-3-4--2-3-1-
2--------------
----3----3-6-2-
9-4------------
-----------2---

Generation = 36, Population = 15.
---------------
----8------0---
---------------
0-------3--1---
4--------------
8------33------
---------------
----3--2-------
9-4-6----------
----2----------

Generation = 38, Population = 43.
---------------
2-6---2-50-0-0-
2--------------
--2-6-233321-0-
4-3------------
--4-32555333---
--2-4----------
5-4-521243-----
----6-2--------
--6---33-------

Generation = 40, Population = 15.
3--------------
----8------0---
---------------
--4-6-------1--
4--------------
--42--------4--
---------------
---27----------
------2-4------
----4----------

Generation = 42, Population = 40.
--4------------
----8-2--1--20-
---------------
2--2--3---231-0
4-3------------
+16442----3-4-1
2-----1-2------
-2-4933-----5--
----7-2-4-0----
--63--4--------

*** Life<FredkinCell> 13x22 ***

Generation = 0, Population = 8.
-0--------------------
---------0------------
----------------------
----------------------
----------------------
----------------------
00-----0--------------
----------------------
-------------0--------
----------------0-----
--0-------------------
----------------------
----------------------

Generation = 3, Population = 77.
0---0--0---0----------
---0--0-0-0-0---------
0-0----0-0-0----------
0------00-0-----------
110---0-00------------
-000-0-0-0---0--------
--21--0-0-0-0-0-0-----
-0-0-0-0-0-0-0---0----
1-10--0-0-0-0-----0---
-00-0--0---0-----0-0--
-0-0-0------0---0-0---
0-0-0--------0-0-0----
-0-0------------0-----

Generation = 6, Population = 58.
10---2----------------
---0-----------0------
1-0------1---1--------
-----0-------1--0-----
22--00-0-------0------
-------0---1--0---0---
--2--210---------0----
---------1--0---0---0-
---0000--------0---0--
----------0---0---0---
--1001--1----0---0----
------------0-------0-
010-0-00---0-0-0------

Generation = 9, Population = 82.
4-0-0-----0-0-0-00----
-2---1-0-0---0-0210---
---0------------00----
--0-------------------
---------0------------
-0---00--20----0------
2-2-052-2-0---0-0-----
--0---0-01-----0-----0
11310-1-00------0-----
-00-00-022---0-0-0-0--
---0-2--1--00-0-0---0-
00--0--0--0--0--------
321---1-0-------------

Generation = 12, Population = 56.
---10------0-0---0----
-----2---1--01--32--10
-------10----2-1------
----------------------
4-2----2-1---0-------0
-0---0--13---1---1--0-
---------1-00------0--
----------------------
-4---242-1-------0-0--
----01---2---0--0-----
-----5-3------00-0----
----------------------
---0------21-0-------0

Generation = 15, Population = 145.
43-4-----2--0-------00
020-0---0-20-----2-123
-111---4-210--------0-
--00--0-200-12---1--0-
----23-232-1230-0-0001
00--002-2-22020--12-00
3553-851443310-000-1--
-2-01-002-000--0120---
-43-12-5-2-0--1-000---
--12-22-2-00-0---0-0--
0--00-33--2-3----00-0-
----12-0-1000---1--0-0
3----113-25--0-0----0-

Generation = 18, Population = 80.
4-1-2------0-----2-1--
---1---0------1--23--3
11-----4---0-4-1-0----
-----1-------------0--
--4123-3-2---30-10---1
--------------1---2---
-55--8---4--1-0-1-1--0
1--------1--0---2-----
553--2-6-3--102-1-0--0
2-1----3--11--0-------
01-0---3--2---121---0-
0--------1--1---------
---0--------0-----0---

Generation = 21, Population = 123.
4-24--12-30-0--10-01-2
040-0---0-20------43-4
---1-21--31--5211300-3
-000020--0-0--001----1
---2-4-4320-----2-000-
-0---1-02----2---13---
----28----552-------21
22--1--0--00-----2--00
-5-3--4------0----0-0-
20-2--2343--1-0--0-0-0
--2--7-6-0---0--2-1-0-
1-------0---2--0-00--0
-4--0---0--2-01-00-0--

*** Life<FredkinCell> 23x26 ***

Generation = 0, Population = 6.
--------------------------
--------------------------
-------------0------------
----------------------0---
------------------------0-
--------------------------
--------------------------
-0------------------------
--------------------------
--------------------------
--------------------------
--------------------------
--------------------------
--------------------------
--------------------------
--------------------------
0-----------------------0-
--------------------------
--------------------------
--------------------------
--------------------------
--------------------------
--------------------------

Generation = 3, Population = 74.
------------0-0-------0---
-----------0-0-0-----0-00-
----------0-0-0-0---0-0010
-----------0-0-0---0-00020
-0----------0-0-----00200-
0-0----------0-------0100-
-0-0------------------00-0
--0-0-------------------0-
-0-0----------------------
0-0-----------------------
-0------------------------
--------------------------
--------------------------
0-----------------------0-
-0---------------------0-0
--0-------------------0-0-
---0-----------------0-0--
--0-------------------0-0-
-0---------------------0-0
0-----------------------0-
--------------------------
--------------------------
--------------------------

Generation = 6, Population = 59.
---------0-0-0-0-0----0-0-
-0----------------0-------
-------0---0-0-0---00-----
---0------------0---1-----
---------0---0---01-------
-----0------------0---1---
-----------0---0----0-----
-------0------------0---1-
-------------0--------1---
-----0----------------0---
0-------------------------
---0----------------------
0-0-------------------0---
-0------------------------
0-0-0---------------0-----
--------------------------
0-0-0-0-----------0-------
--------------------------
0-0-0---------------0-----
--------------------------
0-0-------------------0---
--------------------------
0-----------------------0-

Generation = 9, Population = 74.
--------------------------
-----0---------------0--0-
----0-0-------0-----0-00-0
-----0---------00---20--2-
------------0--0-1-0-0----
-------------0--0---0-----
-----0---0----------------
0---0-0-0-0-------------1-
-0---0---0-------------0-0
0------------0----------0-
------------0-0-------0---
-------------0-------0-00-
----------------------00-0
------------------------0-
-0------------------------
0-0---0-0-------0---0-----
-0---0---0-----0-0-0-0----
------0-0-------0---0-----
--------------------------
--------------------------
--------------------------
0-----------------------0-
-0---------------------0-0

Generation = 12, Population = 68.
-----0-------0--0---10--0-
--------------------------
-0-------0-------1--3---20
-----1---00-------0-------
0--------1--0---01--3-----
--------------------------
-----1-------0-------1--0-
-0---0---0---00-------1---
--0-0--------0--0---------
--------------------------
---------1-------0--------
-0---0---0--------0-------
0-----0-0-------0---------
--------------------------
-------------0------------
-0---0----------------1---
--0-0-----0-----0---0-----
--------------------------
0-----------------------0-
-0------------------------
0-----0-0-------0---0---0-
--------------------------
--0-0---------------0---0-

Generation = 15, Population = 256.
0----1---10--1---20-------
00--0-0-02100-0-0010----0-
-001-2--030-11--12143--4-3
-0-10--0-1-2-0-0-00030002-
121-0---041-020-1-124--01-
010001---010-220-0-0-----0
-01-220---012-010-01---2--
---0-100---021-2200-2-1-30
----1-100---0-1-02-0---020
-----0-000--02-0--1----00-
------1-2201-10-------0---
-------0-1-10-0---0--0----
--------111-0110-2-00-2---
--------0100-000--1000-0--
-------0-0110-0-0-00100-0-
0-----0-0-000000---0201010
-0---0-0-0-01-10----002-10
--0-0-0---0-000------0-0--
-----0-----0---------01--0
--0-----------0-----0-0-0-
-0-0-0-----0-0-0---0-0----
0-0---0---0---0-0-0-0-----
-0-----0-0-----0---0------

Generation = 18, Population = 74.
-10-------------------020-
------0-------0-----------
2--1----0---1--------2--53
----0---2---2---3---------
-2----1-------1--------0--
-1----0------22--0--------
--------0---2-------------
---0-------0-------0------
------------------------2-
-0-----------2---0----2---
-------------1--------1---
--------------------0---2-
0----------0---0----------
----------------------1---
0-0-----0---000-0-----0---
--------------------------
0-----0-----20--0-0-----1-
----------------------0---
--------0--01-100-------0-
--------------------0---1-
-------------0--------1---
----------------------0---
------------------------0-

Generation = 21, Population = 197.
143--1-0-1-0-1-----1-21331
0-0-01--0---0------00--0-0
3---0-0------1---2--3--586
0-1101--3-----0--21------0
--10-2-0-4-1---3--1----0-0
02--0---0---0---0------0--
021--20--1---20--0---1-310
010-0210--0---222-0-212-3-
-0---010---01----2---03---
0-------0---03------0-----
-------------2---000-0----
--0-----01--------100-----
-0-----02210-2--2---------
--0-0---01--000-00--0-----
-0---0------1-1----0-0----
--0-----0-0-----0-0-----1-
---0-0-0---03-20-----0-0-0
0---0---000--0--000-0-----
-0------0-0-----1------0-0
0-------00--0-0-0--00-----
-------0-0-0-----000-0-0-0
--------0---000-0---0-----
------------0-0--------0-0

Generation = 24, Population = 65.
------1-0-------0---2-----
--------------------------
-----2--23--2--1-----2--9-
1-------------------------
33--1--------2--3---4--3--
--------------------------
--------------------------
---------------------1---0
2-------1---1-1-0-------2-
--------------------------
-0-----------5--0---2--1--
------1-------------------
-----0--3---1--------0--0-
--------------------------
------0-1-------0---1-----
-0-----------0---0--------
0---0-0-2-------0---0-2-1-
--------------------------
-----1---------------1----
--------------1-------2---
----------------0---2-----
--------------------------
0-------0---1-1-2-------0-

Generation = 27, Population = 272.
1--014101-1---2-12-23-2--1
1--0-1---2100--000-000--0-
540222-0-40-21-11---42-5--
-1-3210--1--3----2-0----20
-4---63-35-24--3--------4-
2--0012--0-0-3---------001
--11-2-0-1-13-11------0432
0-0-2-1-0-----2-----4-2---
3-10-040---1241--2-0-0422-
-000--10---003-00-2---3001
-00-0---2-0-0-0211-----101
00-0----21-2-1001--1-----0
01-----4-2--1-31-21-00-0--
-100------0--20---10002---
---00--0---1-1------221---
--0---0-0-0-------0-----1-
----1-10-0----4----00--0-0
0-00-0-00-0-01-0--20--2---
--012-2-11--202-110--1---0
---00000---010-040-------0
-0--0-00-1-0311012---2--20
0-0--00-----0020--0-0--0--
-0-0-0---0---02-------1--0

Generation = 30, Population = 209.
4---------40232---------4-
--3-1----------------1---1
6-0-----55--3--12-----4---
3-3-3-0------------0-----1
4-1-1-6---2-4-3---2-5-----
2-1-1-3----------1-----1--
1-------241-6-143-0-4-----
3-1-3---1------3-----1----
----3--01-01572--20---4---
101---2---1--4---------1--
2-0--2---50215-22-103---3-
1--10---2--30------------1
--00---4-5-1-441532-003-2-
--1--12--21---1-------3--1
-02-31-0-112--2102003--2--
----0---1---0---1---2--01-
---0221020---2--0100-0---1
-----11--11---1------12---
--11-2312--2---2---20211-3
---0----0--11------0------
01--10---11-----22--233-31
-0--------1--0---0--------
0-01-1-1----1-2----0-221--

Generation = 33, Population = 81.
-4---------------------4-1
1------0---------0------0-
7-----1---------3-1-------
-13---1--1-------2--------
46-1-7-05-----------------
--2---4-------------------
-2-----------------1---5--
4-1---------------0-4-2-5-
-3-----------------0---4--
------------------------0-
----------------------41-2
-------------2-------0-02-
------------1-5-------3---
0------------2----------0-
-1---------------------3-0
0-0---2-------------3-2-2-
-0-1-3-0-----------1---0--
--0---2------1------0-2---
------------3-3-------2---
-------------1-------0-02-
----------------------40-2
------------------------0-
--------------------------

Generation = 36, Population = 70.
----1-20---------2--3---4-
--------------------------
8--3-------2-3-------2--+-
-16---------3------1---0--
--2---6---3-------------4-
--------------------------
-------1---------1------5-
41---2--1------4---0--20-0
--3---4------8------------
--------------------------
2-------------------5-----
-2----------------12---1--
--0---1--6-------3--2-4---
--------------------------
--2-3--------3------3-----
--------------------------
0-1---3---0--2--0-0-------
--------------------------
1--------2-------3------5-
------------------0-------
--0---1---------------7-6-
--------------------------
-------------0----------0-

Generation = 39, Population = 240.
-4-2---3-3--2----3-4-724--
3---1---0-10-0------01-10-
-----5---7233-1--5--6-6-+7
4-6-------3231--4-1130-02-
---3-76----463-3452-54-3--
----224---1-132101-0---1--
----25-1-5-1-5-74-0--2256-
---0--3---1-242--1--61-370
--3--2---1--5834---0314-3-
301-0-2-1--0-4010030-1-2--
3----2----1-2-03----606---
2-1----021-4----2-2--02---
---0-016661--------1---0--
0-1---30031-----0---0-----
-------012-4---2-3---4-3--
0-0---2---0-0-1---0-3---2-
-0-1-3--3--3-------1---0-1
0-0-0--0-12-0-1-----------
-0-1--4-2244---3---3---2-3
--0----01001----5-0-402---
-------0131-3-2----04----2
--0---0-00-0---0---00-2-0-
-0-2-1-1--0-----2-0-------

Generation = 42, Population = 168.
--4-1-3--45---331---3-2-41
------0---------1-----0---
----4-4---33--2-3---6-76-+
----5---4-----1---1-3---3-
5-3--8--7--5---44--2----42
-----24--0-0---10----02--1
--1-2-01--2--52--1--4-2-6-
---0-----0-0-----1-0-----1
--4----32----8--031-----4-
4----1--11-0--01-----1---1
4--------6-3--0----171----
3-2---2---0-0---3---------
1--1--4------6---3-1--51--
01------1-----1----0---0--
1-2--2--2---2-2------5----
---0-------------0-------0
0----4----0-5-5-0----23-1-
-0------------1----0--40--
1--13--1--4-3---2--32-425-
------------2---6---5---4-
1-0--11-------3-----54--6-
--------------2-------3---
0-----0-0-------2-0-1-2---

*** Life<FredkinCell> 11x13 ***

Generation = 0, Population = 9.
---0---------
-------------
-----0-------
-------------
-------0-----
-------------
------0-----0
----------0--
--------0----
-------------
---------0--0

Generation = 5, Population = 57.
----0-0------
-0-0-00--0--0
0---00-00--0-
-0-0--0-0---0
-------0-0--0
--0--0---0-00
-0-00--112203
--0-0---1--04
---0-0----1-0
----0000-00-0
----0121-0---

Generation = 10, Population = 60.
---012-1---32
-------------
------110-212
-------------
01--1-202-042
--0-----1-2--
-1-32-0-65314
0---2-0-4-4-6
--001--2144-1
--0-----0-1--
1011--341-422

Generation = 15, Population = 77.
---245---2-4-
--20-0-0---0-
-32-52--32713
10-020105--0-
5-1210-----5-
101-20--2030-
---6--337---4
-0003-3---4--
-1-0--1-14722
20---02-0-1--
4-6436--314-3

Generation = 20, Population = 55.
--2-4--232--8
-------------
132-5-41-29-6
2---3-----2--
-54--33--33--
-------------
33--41358---5
6-1-6-5-4---9
-233-12415+-5
-------------
-0+4-84----33

*** Life<FredkinCell> 12x28 ***

Generation = 0, Population = 9.
----------------------------
---------0------------------
--------------------------0-
---------00-----------------
-----------00---------------
--------0-------------------
----------------------------
----------------------------
----------------------------
0---------------------------
---------0------------------
----------------------------

Generation = 3, Population = 65.
-------0-000-------------0-0
------0--1--------------0-0-
-----------1-0---------0-0--
------0--31---0---------0-0-
------00021--210---------0-0
-----0-002-0000-----------0-
0-----0-000110--------------
-0-----0---00---------------
--0-------0-----------------
---0---0-0-0----------------
--0---0-0-0-0---------------
-0-----0---0----------------

Generation = 6, Population = 68.
---------113200-------0-0---
---0-0----2--010------------
-------01--10--00---0-----0-
0--0-2-0---0-2-01-----------
-----10---1--31--10---0-----
0----1-1-5-1-1--------------
--------1---2--00-------0---
0-0----0-0-0----------------
-----0---10---0-----------0-
--0-0----0------------------
---0-------01--0------------
----0---0-------------------

Generation = 9, Population = 92.
00------0--------0----------
110----0---00---0-----0-----
0-0------20230---010-0-0----
022-0---0-2-1---11--0-0---0-
00-222----1-----12-210---0-0
-0-00---060----0-0-00-----0-
--------130-----1-----------
-0-------1------------------
0-----0-02------------------
-0---0--230------0--------0-
0-0---0---0-----0-0------0-0
-0-----01-10-----0--------0-

Generation = 12, Population = 95.
---10----4-54-----200-0---0-
--0--1--33--11--12---0------
-----1-225---3210-1---0---0-
-3-------------------00-----
0------32------32-----110-0-
130-130--9--13---3--1-------
-1---1---4-330---11---0---0-
-0--1---0--------00---------
---01--------------00-----0-
0-0-00--2---10--0-----------
-----0---1---0---0---00-----
0---00--42--210-------------

Generation = 15, Population = 157.
---4--1-1-3--10--15--2------
--0-12---4-0112013300-2-----
-0-12-----34-43--21-10-2-0--
3-21--------2-2----1-31---0-
-43-26--5-2--626-3--3-2--110
-41-4432-+--1320--0--200000-
-----2022714412-1--1-01-10--
-32---10-2--00-1-1-----0--0-
0011----0-----0-0-01-0-----0
11021-1-----4--2-100--00----
-0002--0---1-00--00-0-121--0
--12----5-12-21-0--0---00-0-

Generation = 18, Population = 92.
-------0-646--0-------------
---123-03--------------0-010
--01----5--53---0----------0
3-31-533-4-------------0-2-0
35--27-5-4-4-7-----------211
1-2--5-31+-22---------0--1--
--01-----7-44-----------2--1
0-----101320--0-0-------0---
-----0-----12------------00-
------1--6--5-1-0-0---------
---0---0-20--11--------2---0
----------2-5-1-0-----------

Generation = 21, Population = 155.
0-16-2--195---10-----2--0002
45-12--0-4--11----3-0-201311
----2-24-6-644-1-2-3--1-0-10
-531---32522--201-1-143----1
6---3+--75---8-7-3--31---5-1
2--0--5-2+4--4--25-1-2001---
----2----73-5--11---20-131-1
--2----0-4310---------0-1---
00222-0--5-23-----0-1---01--
--0--0---911---201-----0--0-
--0----113055222-00---1--1-1
-0-----2--325---10---0---000

Generation = 24, Population = 103.
-2---------------1--------3-
56----2-544--12-13-----11---
---4-45--6--------1---2--2-3
663-35--3-2-43--432---42-34-
-6---------7--2--4--44------
545--76-3-5---2-360-----15--
-----5---8-66-----2---2--2--
-3------1-----1-01----------
---------6------------------
3----01-3+------1-----1-00--
-1-22-----0--23--3-21--3--1-
0-2-100-634-------1-----200-

Generation = 27, Population = 175.
25262-----6-62------2--02--4
6--3265----03----43101242--3
010-55-6---6-46-1--322----3-
---3--354--------4--17--23-2
8-5--+55-7-8-------25-35151-
----7-943+5-47-247-3--0-----
-203-6-3---77333--31-2234-12
04-1----175241-334010-201010
1-23--0-0933--2-03-2--3---2-
3-0-1----+24-022-2102-2-1-0-
0-452-1--------2-445212---2-
---42-1-734-62--2-20-0-1--0-

Generation = 30, Population = 160.
-627324-3-6--3-----1-20-3-3-
781--9-1---0356-35421-------
0--55-578----5-3-4--2--53---
--5-67-6-6-467-0-4-24-4-----
--645+5--8-9-----52---4-484-
97-08-+4-+84473358--3-1-3---
-30-47-4---883--353-5-3-5-23
0552-22--+6351-3--------4-1-
2--3---0-+4--0--1413--3-1--2
4-032223-+-5-1--1---3-----1-
3---33--1--8-45----634---33-
--2--1--+--57-4-------2-4---

Generation = 33, Population = 104.
---------+-974-1-----3------
7---2---766-3-7-4---1-2---1-
31-6-5----6---8-----2----4-4
98--7---592-6-536-2-585---5-
8-------89295+-+6653-54-----
---------+--58-3-903-4-3----
---------8------3-----4-----
--------1+7---------------2-
2-------0---------------2342
-1------5-5-7--2-----0-1--41
4-------26-9945-0---4-2-2-3-
-------4-3-58--1-----2------

Generation = 36, Population = 113.
4---3--23+--+7-11-73------3-
-----+6--973-5+346-3-52--5--
4-2-5---9--75---------3---3-
--6-87---+56-7--7453----23--
-----+--9--96+5+77----56--5-
+-----------6--6--3-47--3---
0---4------9+--6-----4----4-
0----2--1+---313----20------
-----2---+--5-----14--4---4-
--1-333-5----24-2---4-----7-
-------23---+---14-7-6---5--
1---2-----5-8-----------4-3-

Generation = 39, Population = 148.
--4-345----++73--38-553----5
-9-4--73-984--+45946--26----
-1--------6--7--1--5--6---3-
+8-4---87+69-8-57---5----6-3
-6--5-7--+4+9-5-----8--74-52
+-6--7------69--79-3--144710
-4-3---------63-56----44----
--6-35--------23--22-----050
41-4520--+6----2-4271-40-572
5-2566466-5-8--2---05--1----
4--734---6---46-------43-563
-0-42---------5------231-14-

Generation = 42, Population = 148.
-7-965-44---+8-1-48-8---4-5-
++243+--9----7-48+773--7--1-
-2-76768+-7+--96-4--3--85-44
-9-4-8---+6-7--6----6---5---
9-----89---+---+--75---8-8-5
--------5-856-568+-357-----0
1----7---87-+6---7547654--44
36-2--31-+-57-2457-2----5---
4--------+66--3-1---12-1--+3
-1-5--5-----95----3--2-2----
5-4---------+--6--------2-96
-02---35+565948---20--61----

Generation = 45, Population = 166.
4+6-756---7++-3--5--+5-15287
++2-4-7-9+---+-79--84--8-7-5
5--+-8-9-88+8-+--5-64-89-545
++9-+9-98-6---5-7-547-6--66-
988-5----+5---6++-+6+-9-6---
+---+9-56---6--98+36---55921
---5----5---+-38-------7--75
--72-5-43++----4----515-5--1
----530-3-7--06----7-2-235-6
7-----567+------464--5-3--91
-1--442--81-----37-8-----6+-
2-34-56-+6---5--32--1--2--4-
