*** Life<Cell> 2x10 ***

Generation = 0, Population = 9.
---0-0000-
0---0-0--0

Generation = 2, Population = 6.
-0--1*---0
-------00-

Generation = 4, Population = 7.
-01-*.----
------***0

Generation = 6, Population = 10.
1**0.**1*-
----11...-

Generation = 8, Population = 10.
*..****-.-
-1-0*-*..1

Generation = 10, Population = 9.
.....***.-
--00.***.1

*** Life<Cell> 11x1 ***

Generation = 0, Population = 7.
-
-
0
0
0
-
0
0
-
0
0

Generation = 2, Population = 7.
0
1
*
-
-
-
*
*
-
*
*

Generation = 4, Population = 1.
-
1
.
-
-
-
.
.
-
.
.

Generation = 6, Population = 1.
-
1
.
-
-
-
.
.
-
.
.

Generation = 8, Population = 1.
-
1
.
-
-
-
.
.
-
.
.

Generation = 10, Population = 1.
-
1
.
-
-
-
.
.
-
.
.

*** Life<Cell> 1x9 ***

Generation = 0, Population = 7.
000-000-0

Generation = 2, Population = 1.
-------0-

Generation = 4, Population = 1.
-----0---

Generation = 6, Population = 2.
---0---0-

Generation = 8, Population = 1.
-0-------

Generation = 10, Population = 1.
---0-----

*** Life<Cell> 12x8 ***

Generation = 0, Population = 9.
-----0--
-0-----0
------0-
--------
--------
--------
0--0----
-0------
--0-----
--------
--------
------0-

Generation = 2, Population = 26.
---0-011
---0-1-0
----01--
-0-----0
0--0--0-
-0------
00---0--
---1----
---10---
-0----0-
--0-----
----0-0-

Generation = 4, Population = 30.
-0----11
---*---*
0-00-11-
-0------
--1--1--
-*-----0
--1-1-10
-1-.-10-
0-----1-
------0-
0--1----
-01---0-

Generation = 6, Population = 33.
101-0-.-
---.---*
---0-..-
-0------
-1---1--
1.10--0*
-1-----0
-1-.0**-
---1--11
--0-01--
-00--00-
0*.0----

Generation = 8, Population = 42.
*0*---*-
-1-.-1-*
01*-*.*-
1-1---0-
-.-1---1
-*.-10-.
-.---1**
1.1.*..-
-10-*-1*
--*--1-1
0001--*-
*..01---

Generation = 10, Population = 37.
*-.-00.-
1-1.0-0*
0..-*.*-
.-.-11-0
1.--0*-1
-.*1*--.
-.----..
1...*..0
-.--*-**
1-.-111*
---10-*-
...0.--0

*** Life<Cell> 6x6 ***

Generation = 0, Population = 9.
0--00-
------
--0--0
-0----
-00---
0-----

Generation = 2, Population = 17.
-11**-
-0----
-00--0
1--0--
0-*100
-01---

Generation = 4, Population = 18.
11-*.1
1--11-
-0--1-
*1---0
--.*0*
-*1-1-

Generation = 6, Population = 16.
-*1..-
.---1-
1**0*-
*1-*--
-0..-.
1**1.-

Generation = 8, Population = 16.
**...1
.00-.-
1*.-.-
.*-.-1
*0..1.
****.-

Generation = 10, Population = 17.
*..*.1
.-***1
...1*1
.*-.-1
.-.*1.
.***.-

*** Life<Cell> 7x6 ***

Generation = 0, Population = 8.
------
--00--
------
-0----
---0-0
-00---
----0-

Generation = 2, Population = 17.
------
0---10
---1-0
-0----
-0-00-
1*-01-
--1101

Generation = 4, Population = 20.
---0-1
01-1.0
----1-
-*---1
---001
*.**.0
10..**

Generation = 6, Population = 17.
-1---.
*.1*.-
--0---
-.1--*
1100-*
*....-
-****.

Generation = 8, Population = 17.
--0*0.
..1.*1
-101--
1.1--.
-1**-.
....*-
-**...

Generation = 10, Population = 14.
0-0.0.
..-..*
0.-.-*
-*--0.
1.**0.
.**..-
-.....

*** Life<Cell> 7x12 ***

Generation = 0, Population = 10.
0-----------
------------
------------
--0----0----
-0--0-------
0----0-0-0--
-----0------

Generation = 2, Population = 23.
--0---------
--0----0----
00--0-------
----1--0----
--01-00-----
0--0-*-0-0-0
-0-01*-1----

Generation = 4, Population = 24.
-1*---------
1----0-0-0--
*----1------
1--0.-0----0
-1------0---
00001.-*----
-----*0*-1--

Generation = 6, Population = 37.
-**-01------
*----*0--0--
**-1**-10---
.---.0--1--0
1.-110-0-10-
**--..0*-1-0
-1-11*-.0--0

Generation = 8, Population = 32.
-*.-*10-0---
.--1-.*-----
..0**.1.----
.1--.01-.00-
..**10*-11--
..-0**-.1.-*
-*0.-.0*----

Generation = 10, Population = 41.
-..-*100--0-
.-1.1.*1100-
.*-.*.1.-1--
.1--*0*1*0--
..*..0*1-111
..1-..*.**1*
-.-*-***-1--

*** Life<Cell> 8x6 ***

Generation = 0, Population = 8.
--000-
------
-0----
------
-0--0-
------
--00--
------

Generation = 2, Population = 8.
0--0-1
------
-01---
------
-0----
------
0----0
------

Generation = 4, Population = 14.
-----1
------
-*.-00
------
1010-0
------
0111-0
------

Generation = 6, Population = 14.
-0-0*1
--0---
1..--*
--1---
.0-*--
------
*--*00
------

Generation = 8, Population = 23.
1-*-**
1-0---
1*.0**
--1-0-
*--*10
1-00--
.-*.0-
---1--

Generation = 10, Population = 25.
.-.-..
-1*-00
-.****
-0100-
.1**.*
*0-0-1
.*..-*
-00--0

*** Life<Cell> 6x10 ***

Generation = 0, Population = 9.
---0------
-0--------
----------
--0-0-----
0--0-00---
--0-------

Generation = 2, Population = 22.
-1-0-0----
--110-----
0----00---
11--0-1---
01101*-10-
1---------

Generation = 4, Population = 18.
1--*-010--
--..-1----
---1------
*-0---.-1-
*.--..*.-1
*01-1-0---

Generation = 6, Population = 27.
-*1.001-10
1-.*-*-10-
*0-1--00-0
.---1-.1--
.*1-...*11
.-.0--*---

Generation = 8, Population = 30.
-*..*-**-*
.1..-.---1
.-0*--*-1-
*11-1-.-10
..*0*.**1*
.1*-*1*-1-

Generation = 10, Population = 21.
-...*1..-.
.*.*-*--0*
*-0.--.-.-
*-*0*1*-*-
...0....-.
.**-.-*-.0

*** Life<Cell> 7x10 ***

Generation = 0, Population = 9.
--0--0----
--------0-
--0-------
----------
-------0--
-0------0-
-----0--0-

Generation = 2, Population = 21.
0--110-0--
------0---
0-0-00-0--
-0--------
--0-----00
---0--0---
---0-01-*-

Generation = 4, Population = 27.
011*--10-0
-0--0---0-
0-0---1-1-
----------
--00----**
----10--1-
-01-0--0*1

Generation = 6, Population = 26.
-.1.--*--0
--10------
010----0*-
-0---0--0-
-----1-1.*
--01---01-
1**--1--**

Generation = 8, Population = 28.
1**.1-.---
11.*1-----
-.-01---.-
------1--0
---*-.-..*
100.*1*---
***1*-*-**

Generation = 10, Population = 28.
-..**-.---
1-...1---0
-.-01**-.1
-10-1-11--
1--.-*0..*
1*0.*-*-*0
...1.-*-..
